[
  {
    "host": "share.app",
    "target": "http://share"
  },
  {
    "host": "sfs.app",
    "target": "http://sdmx-faceted-search"
  },
  
  
  {
    "host": "demo.dlm.app",
    "target": "http://data-lifecycle-manager",
    "tenant": "demo"
  },
  {
    "host": "demo.de.app",
    "target": "http://data-explorer",
    "tenant": "demo"
  },
  {
    "host": "demo.viewer.app",
    "target": "http://data-viewer",
    "tenant": "demo"
  },
  
  
  {
    "host": "cambodia.dlm.app",
    "target": "http://data-lifecycle-manager",
    "tenant": "cambodia"
  },
  {
    "host": "cambodia.de.app",
    "target": "http://data-explorer",
    "tenant": "cambodia"
  },
  {
    "host": "cambodia.viewer.app",
    "target": "http://data-viewer",
    "tenant": "cambodia"
  },
 
 
  {
    "host": "ethiopia.dlm.app",
    "target": "http://data-lifecycle-manager",
    "tenant": "ethiopia"
  },
  {
    "host": "ethiopia.de.app",
    "target": "http://data-explorer",
    "tenant": "ethiopia"
  },
  {
    "host": "ethiopia.viewer.app",
    "target": "http://data-viewer",
    "tenant": "ethiopia"
  },
 
 
  {
    "host": "ghana.dlm.app",
    "target": "http://data-lifecycle-manager",
    "tenant": "ghana"
  },
  {
    "host": "ghana.de.app",
    "target": "http://data-explorer",
    "tenant": "ghana"
  },
  {
    "host": "ghana.viewer.app",
    "target": "http://data-viewer",
    "tenant": "ghana"
  },
 
 
  {
    "host": "kyrgyzstan.dlm.app",
    "target": "http://data-lifecycle-manager",
    "tenant": "kyrgyzstan"
  },
  {
    "host": "kyrgyzstan.de.app",
    "target": "http://data-explorer",
    "tenant": "kyrgyzstan"
  },
  {
    "host": "kyrgyzstan.viewer.app",
    "target": "http://data-viewer",
    "tenant": "kyrgyzstan"
  },
 
 
  {
    "host": "tanzania.dlm.app",
    "target": "http://data-lifecycle-manager",
    "tenant": "tanzania"
  },
  {
    "host": "tanzania.de.app",
    "target": "http://data-explorer",
    "tenant": "tanzania"
  },
  {
    "host": "tanzania.viewer.app",
    "target": "http://data-viewer",
    "tenant": "tanzania"
  },
 
 
  {
    "host": "thailand.dlm.app",
    "target": "http://data-lifecycle-manager",
    "tenant": "thailand"
  },
  {
    "host": "thailand.de.app",
    "target": "http://data-explorer",
    "tenant": "thailand"
  },
  {
    "host": "thailand.viewer.app",
    "target": "http://data-viewer",
    "tenant": "thailand"
  },
 
  
  {
    "host": "keycloak",
    "target": "http://keycloak:8080"
  },
  {
    "host": "transfer.app",
    "target": "http://transfer-service"
  },
  {
    "host": "auth.app",
    "target": "http://auth-service"
  },
  {
    "host": "demo.nsi",
    "target": "http://nsiws-demo"
  },
  {
    "host": "cambodia.nsi",
    "target": "http://nsiws-cambodia"
  }, 
  {
    "host": "ethiopia.nsi",
    "target": "http://nsiws-ethiopia"
  }, 
  {
    "host": "ghana.nsi",
    "target": "http://nsiws-ghana"
  }, 
  {
    "host": "kyrgyzstan.nsi",
    "target": "http://nsiws-kyrgyzstan"
  }, 
  {
    "host": "tanzania.nsi",
    "target": "http://nsiws-tanzania"
  }, 
  {
    "host": "thailand.nsi",
    "target": "http://nsiws-thailand"
  }
]